<?xml version="1.0" encoding="UTF-8" standalone="no"?>
<!DOCTYPE svg PUBLIC "-//W3C//DTD SVG 1.1//EN"
 "http://www.w3.org/Graphics/SVG/1.1/DTD/svg11.dtd">
<!-- Generated by graphviz version 2.42.3 (20191010.1750)
 -->
<!-- Title: %3 Pages: 1 -->
<svg width="276pt" height="44pt"
 viewBox="0.00 0.00 275.79 44.00" xmlns="http://www.w3.org/2000/svg" xmlns:xlink="http://www.w3.org/1999/xlink">
<g id="graph0" class="graph" transform="scale(1 1) rotate(0) translate(4 40)">
<title>%3</title>
<polygon fill="white" stroke="transparent" points="-4,4 -4,-40 271.79,-40 271.79,4 -4,4"/>
<!-- subject -->
<g id="node1" class="node">
<title>subject</title>
<ellipse fill="none" stroke="black" cx="43.55" cy="-18" rx="43.59" ry="18"/>
<text text-anchor="middle" x="43.55" y="-14.3" font-family="sans-serif" font-size="14.00">subject</text>
</g>
<!-- object -->
<g id="node2" class="node">
<title>object</title>
<ellipse fill="none" stroke="black" cx="229.44" cy="-18" rx="38.19" ry="18"/>
<text text-anchor="middle" x="229.44" y="-14.3" font-family="sans-serif" font-size="14.00">object</text>
</g>
<!-- subject&#45;&gt;object -->
<g id="edge1" class="edge">
<title>subject&#45;&gt;object</title>
<path fill="none" stroke="black" d="M87.2,-18C115.17,-18 151.78,-18 180.72,-18"/>
<polygon fill="black" stroke="black" points="181,-21.5 191,-18 181,-14.5 181,-21.5"/>
<text text-anchor="middle" x="139.09" y="-21.8" font-family="Times,serif" font-size="14.00">predicate</text>
</g>
</g>
</svg>
