<?xml version="1.0" encoding="UTF-8" standalone="no"?>
<!-- Created with Inkscape (http://www.inkscape.org/) -->

<svg
   xmlns:dc="http://purl.org/dc/elements/1.1/"
   xmlns:cc="http://creativecommons.org/ns#"
   xmlns:rdf="http://www.w3.org/1999/02/22-rdf-syntax-ns#"
   xmlns:svg="http://www.w3.org/2000/svg"
   xmlns="http://www.w3.org/2000/svg"
   xmlns:sodipodi="http://sodipodi.sourceforge.net/DTD/sodipodi-0.dtd"
   xmlns:inkscape="http://www.inkscape.org/namespaces/inkscape"
   width="526.70081"
   height="385"
   viewBox="0 0 139.3565 101.86464"
   version="1.1"
   id="svg8"
   sodipodi:docname="federation.svg"
   inkscape:version="0.92.4 (5da689c313, 2019-01-14)">
  <defs
     id="defs2" />
  <sodipodi:namedview
     id="base"
     pagecolor="#ffffff"
     bordercolor="#666666"
     borderopacity="1.0"
     inkscape:pageopacity="0.0"
     inkscape:pageshadow="2"
     inkscape:zoom="1"
     inkscape:cx="374.01562"
     inkscape:cy="157.14286"
     inkscape:document-units="mm"
     inkscape:current-layer="layer1"
     showgrid="false"
     units="px"
     inkscape:window-width="1920"
     inkscape:window-height="1057"
     inkscape:window-x="0"
     inkscape:window-y="23"
     inkscape:window-maximized="0" />
  <metadata
     id="metadata5">
    <rdf:RDF>
      <cc:Work
         rdf:about="">
        <dc:format>image/svg+xml</dc:format>
        <dc:type
           rdf:resource="http://purl.org/dc/dcmitype/StillImage" />
        <dc:title></dc:title>
      </cc:Work>
    </rdf:RDF>
  </metadata>
  <g
     inkscape:label="Layer 1"
     inkscape:groupmode="layer"
     id="layer1"
     transform="translate(0,-195.13535)">
    <circle
       style="opacity:1;fill:#4782a7;fill-opacity:1;fill-rule:nonzero;stroke:#447da0;stroke-width:0.39687499;stroke-miterlimit:4;stroke-dasharray:none;stroke-opacity:1;paint-order:fill markers stroke"
       id="path825"
       cx="44.979172"
       cy="259.90161"
       r="3.9690835" />
    <circle
       style="opacity:1;fill:#4782a7;fill-opacity:1;fill-rule:nonzero;stroke:#447da0;stroke-width:0.39687499;stroke-miterlimit:4;stroke-dasharray:none;stroke-opacity:1;paint-order:fill markers stroke"
       id="path825-5"
       cx="30.162497"
       cy="285.22604"
       r="1.1345128" />
    <circle
       style="opacity:1;fill:#4782a7;fill-opacity:1;fill-rule:nonzero;stroke:#447da0;stroke-width:0.39687499;stroke-miterlimit:4;stroke-dasharray:none;stroke-opacity:1;paint-order:fill markers stroke"
       id="path825-5-6"
       cx="43.259377"
       cy="289.98856"
       r="1.1345128" />
    <circle
       style="opacity:1;fill:#4782a7;fill-opacity:1;fill-rule:nonzero;stroke:#447da0;stroke-width:0.39687499;stroke-miterlimit:4;stroke-dasharray:none;stroke-opacity:1;paint-order:fill markers stroke"
       id="path825-5-1"
       cx="65.352081"
       cy="284.69687"
       r="1.1345128" />
    <circle
       style="opacity:1;fill:#4782a7;fill-opacity:1;fill-rule:nonzero;stroke:#447da0;stroke-width:0.39687499;stroke-miterlimit:4;stroke-dasharray:none;stroke-opacity:1;paint-order:fill markers stroke"
       id="path825-5-15"
       cx="21.828123"
       cy="275.56876"
       r="1.1345128" />
    <circle
       style="opacity:1;fill:#4782a7;fill-opacity:1;fill-rule:nonzero;stroke:#447da0;stroke-width:0.39687499;stroke-miterlimit:4;stroke-dasharray:none;stroke-opacity:1;paint-order:fill markers stroke"
       id="path825-5-9"
       cx="10.186458"
       cy="262.60419"
       r="1.1345128" />
    <circle
       style="opacity:1;fill:#4782a7;fill-opacity:1;fill-rule:nonzero;stroke:#447da0;stroke-width:0.39687499;stroke-miterlimit:4;stroke-dasharray:none;stroke-opacity:1;paint-order:fill markers stroke"
       id="path825-5-15-0"
       cx="10.847919"
       cy="250.43332"
       r="1.1345128" />
    <circle
       style="opacity:1;fill:#4782a7;fill-opacity:1;fill-rule:nonzero;stroke:#447da0;stroke-width:0.39687499;stroke-miterlimit:4;stroke-dasharray:none;stroke-opacity:1;paint-order:fill markers stroke"
       id="path825-5-9-3"
       cx="4.8947906"
       cy="237.60104"
       r="1.1345128" />
    <circle
       style="opacity:1;fill:#4782a7;fill-opacity:1;fill-rule:nonzero;stroke:#447da0;stroke-width:0.39687499;stroke-miterlimit:4;stroke-dasharray:none;stroke-opacity:1;paint-order:fill markers stroke"
       id="path825-5-15-04"
       cx="34.528122"
       cy="231.51562"
       r="1.1345128" />
    <circle
       style="opacity:1;fill:#4782a7;fill-opacity:1;fill-rule:nonzero;stroke:#447da0;stroke-width:0.39687499;stroke-miterlimit:4;stroke-dasharray:none;stroke-opacity:1;paint-order:fill markers stroke"
       id="path825-5-9-4"
       cx="20.372919"
       cy="234.82292"
       r="1.1345128" />
    <path
       style="fill:none;fill-rule:evenodd;stroke:#447da0;stroke-width:0.39687499;stroke-miterlimit:4;stroke-dasharray:none;stroke-opacity:1"
       d="m 11.941142,250.73659 29.213395,8.10404"
       id="path938"
       inkscape:connector-type="polyline"
       inkscape:connector-curvature="0"
       inkscape:connection-end="#path825"
       inkscape:connection-start="#path825-5-15-0" />
    <path
       style="fill:none;fill-rule:evenodd;stroke:#447da0;stroke-width:0.39687499;stroke-miterlimit:4;stroke-dasharray:none;stroke-opacity:1"
       d="m 34.920092,232.58026 8.687766,23.59675"
       id="path940"
       inkscape:connector-type="polyline"
       inkscape:connector-curvature="0"
       inkscape:connection-start="#path825-5-15-04"
       inkscape:connection-end="#path825" />
    <path
       style="fill:none;fill-rule:evenodd;stroke:#447da0;stroke-width:0.39687499;stroke-miterlimit:4;stroke-dasharray:none;stroke-opacity:1"
       d="M 42.199452,257.06853 21.167464,235.63273"
       id="path942"
       inkscape:connector-type="polyline"
       inkscape:connector-curvature="0"
       inkscape:connection-start="#path825"
       inkscape:connection-end="#path825-5-9-4" />
    <path
       style="fill:none;fill-rule:evenodd;stroke:#447da0;stroke-width:0.39687499;stroke-miterlimit:4;stroke-dasharray:none;stroke-opacity:1"
       d="M 5.8861831,238.1526 41.510784,257.97201"
       id="path944"
       inkscape:connector-type="polyline"
       inkscape:connector-curvature="0"
       inkscape:connection-end="#path825"
       inkscape:connection-start="#path825-5-9-3" />
    <path
       style="fill:none;fill-rule:evenodd;stroke:#447da0;stroke-width:0.39687499;stroke-miterlimit:4;stroke-dasharray:none;stroke-opacity:1"
       d="m 41.022073,260.20899 -29.704529,2.30733"
       id="path946"
       inkscape:connector-type="polyline"
       inkscape:connector-curvature="0"
       inkscape:connection-start="#path825"
       inkscape:connection-end="#path825-5-9" />
    <path
       style="fill:none;fill-rule:evenodd;stroke:#447da0;stroke-width:0.39687499;stroke-miterlimit:4;stroke-dasharray:none;stroke-opacity:1"
       d="m 44.979171,259.90162 v 0"
       id="path954"
       inkscape:connector-type="polyline"
       inkscape:connector-curvature="0"
       inkscape:connection-start="#path825"
       inkscape:connection-end="#path825" />
    <path
       style="fill:none;fill-rule:evenodd;stroke:#447da0;stroke-width:0.39687499;stroke-miterlimit:4;stroke-dasharray:none;stroke-opacity:1"
       d="M 22.76769,274.93292 41.692114,262.12609"
       id="path956"
       inkscape:connector-type="polyline"
       inkscape:connector-curvature="0"
       inkscape:connection-start="#path825-5-15"
       inkscape:connection-end="#path825" />
    <path
       style="fill:none;fill-rule:evenodd;stroke:#447da0;stroke-width:0.39687499;stroke-miterlimit:4;stroke-dasharray:none;stroke-opacity:1"
       d="M 30.735414,284.24683 42.974837,263.32739"
       id="path958"
       inkscape:connector-type="polyline"
       inkscape:connector-curvature="0"
       inkscape:connection-start="#path825-5"
       inkscape:connection-end="#path825" />
    <path
       style="fill:none;fill-rule:evenodd;stroke:#447da0;stroke-width:0.39687499;stroke-miterlimit:4;stroke-dasharray:none;stroke-opacity:1"
       d="m 44.752668,263.86416 -1.42855,24.99175"
       id="path960"
       inkscape:connector-type="polyline"
       inkscape:connector-curvature="0"
       inkscape:connection-start="#path825"
       inkscape:connection-end="#path825-5-6" />
    <path
       style="fill:none;fill-rule:evenodd;stroke:#447da0;stroke-width:0.39687499;stroke-miterlimit:4;stroke-dasharray:none;stroke-opacity:1"
       d="M 64.631847,283.8203 47.498891,262.96829"
       id="path962"
       inkscape:connector-type="polyline"
       inkscape:connector-curvature="0"
       inkscape:connection-start="#path825-5-1"
       inkscape:connection-end="#path825" />
    <circle
       style="opacity:1;fill:#4782a7;fill-opacity:1;fill-rule:nonzero;stroke:#447da0;stroke-width:0.39687499;stroke-miterlimit:4;stroke-dasharray:none;stroke-opacity:1;paint-order:fill markers stroke"
       id="path825-9"
       cx="105.43257"
       cy="260.89053"
       r="3.9690835" />
    <circle
       style="opacity:1;fill:#4782a7;fill-opacity:1;fill-rule:nonzero;stroke:#447da0;stroke-width:0.39687499;stroke-miterlimit:4;stroke-dasharray:none;stroke-opacity:1;paint-order:fill markers stroke"
       id="path825-7"
       cx="81.227089"
       cy="224.90105"
       r="3.9690835" />
    <circle
       style="opacity:1;fill:#4782a7;fill-opacity:1;fill-rule:nonzero;stroke:#447da0;stroke-width:0.39687499;stroke-miterlimit:4;stroke-dasharray:none;stroke-opacity:1;paint-order:fill markers stroke"
       id="path825-53"
       cx="76.829369"
       cy="269.3183"
       r="3.9690835" />
    <path
       style="fill:none;fill-rule:evenodd;stroke:#447da0;stroke-width:0.39687499;stroke-miterlimit:4;stroke-dasharray:none;stroke-opacity:1"
       d="m 48.785314,261.02692 24.237913,7.16606"
       id="path1091"
       inkscape:connector-type="polyline"
       inkscape:connector-curvature="0"
       inkscape:connection-start="#path825"
       inkscape:connection-end="#path825-53" />
    <path
       style="fill:none;fill-rule:evenodd;stroke:#447da0;stroke-width:0.39687499;stroke-miterlimit:4;stroke-dasharray:none;stroke-opacity:1"
       d="M 80.836025,228.85081 77.22043,265.36854"
       id="path1093"
       inkscape:connector-type="polyline"
       inkscape:connector-curvature="0"
       inkscape:connection-start="#path825-7"
       inkscape:connection-end="#path825-53" />
    <path
       style="fill:none;fill-rule:evenodd;stroke:#447da0;stroke-width:0.39687499;stroke-miterlimit:4;stroke-dasharray:none;stroke-opacity:1"
       d="m 80.63656,268.19652 20.98882,-6.18422"
       id="path1095"
       inkscape:connector-type="polyline"
       inkscape:connector-curvature="0"
       inkscape:connection-start="#path825-53"
       inkscape:connection-end="#path825-9" />
    <path
       style="fill:none;fill-rule:evenodd;stroke:#447da0;stroke-width:0.39687499;stroke-miterlimit:4;stroke-dasharray:none;stroke-opacity:1"
       d="M 78.37188,227.65801 47.834384,257.14466"
       id="path1097"
       inkscape:connector-type="polyline"
       inkscape:connector-curvature="0"
       inkscape:connection-start="#path825-7"
       inkscape:connection-end="#path825" />
    <circle
       style="opacity:1;fill:#4782a7;fill-opacity:1;fill-rule:nonzero;stroke:#447da0;stroke-width:0.39687499;stroke-miterlimit:4;stroke-dasharray:none;stroke-opacity:1;paint-order:fill markers stroke"
       id="path825-5-15-04-8"
       cx="45.126923"
       cy="219.76015"
       r="1.1345128" />
    <circle
       style="opacity:1;fill:#4782a7;fill-opacity:1;fill-rule:nonzero;stroke:#447da0;stroke-width:0.39687499;stroke-miterlimit:4;stroke-dasharray:none;stroke-opacity:1;paint-order:fill markers stroke"
       id="path825-5-15-04-83"
       cx="68.887184"
       cy="207.41229"
       r="1.1345128" />
    <circle
       style="opacity:1;fill:#4782a7;fill-opacity:1;fill-rule:nonzero;stroke:#447da0;stroke-width:0.39687499;stroke-miterlimit:4;stroke-dasharray:none;stroke-opacity:1;paint-order:fill markers stroke"
       id="path825-5-15-04-1"
       cx="84.041374"
       cy="213.21204"
       r="1.1345128" />
    <circle
       style="opacity:1;fill:#4782a7;fill-opacity:1;fill-rule:nonzero;stroke:#447da0;stroke-width:0.39687499;stroke-miterlimit:4;stroke-dasharray:none;stroke-opacity:1;paint-order:fill markers stroke"
       id="path825-5-15-04-89"
       cx="94.892517"
       cy="218.82469"
       r="1.1345128" />
    <circle
       style="opacity:1;fill:#4782a7;fill-opacity:1;fill-rule:nonzero;stroke:#447da0;stroke-width:0.39687499;stroke-miterlimit:4;stroke-dasharray:none;stroke-opacity:1;paint-order:fill markers stroke"
       id="path825-5-15-04-6"
       cx="103.49858"
       cy="199.92874"
       r="1.1345128" />
    <circle
       style="opacity:1;fill:#4782a7;fill-opacity:1;fill-rule:nonzero;stroke:#447da0;stroke-width:0.39687499;stroke-miterlimit:4;stroke-dasharray:none;stroke-opacity:1;paint-order:fill markers stroke"
       id="path825-5-15-04-4"
       cx="119.40112"
       cy="237.53357"
       r="1.1345128" />
    <circle
       style="opacity:1;fill:#4782a7;fill-opacity:1;fill-rule:nonzero;stroke:#447da0;stroke-width:0.39687499;stroke-miterlimit:4;stroke-dasharray:none;stroke-opacity:1;paint-order:fill markers stroke"
       id="path825-5-15-04-3"
       cx="93.395798"
       cy="246.32674"
       r="1.1345128" />
    <circle
       style="opacity:1;fill:#4782a7;fill-opacity:1;fill-rule:nonzero;stroke:#447da0;stroke-width:0.39687499;stroke-miterlimit:4;stroke-dasharray:none;stroke-opacity:1;paint-order:fill markers stroke"
       id="path825-5-15-04-33"
       cx="98.073013"
       cy="236.7852"
       r="1.1345128" />
    <circle
       style="opacity:1;fill:#4782a7;fill-opacity:1;fill-rule:nonzero;stroke:#447da0;stroke-width:0.39687499;stroke-miterlimit:4;stroke-dasharray:none;stroke-opacity:1;paint-order:fill markers stroke"
       id="path825-5-15-04-86"
       cx="128.94264"
       cy="252.12648"
       r="1.1345128" />
    <circle
       style="opacity:1;fill:#4782a7;fill-opacity:1;fill-rule:nonzero;stroke:#447da0;stroke-width:0.39687499;stroke-miterlimit:4;stroke-dasharray:none;stroke-opacity:1;paint-order:fill markers stroke"
       id="path825-5-15-04-0"
       cx="109.11124"
       cy="245.76547"
       r="1.1345128" />
    <circle
       style="opacity:1;fill:#4782a7;fill-opacity:1;fill-rule:nonzero;stroke:#447da0;stroke-width:0.39687499;stroke-miterlimit:4;stroke-dasharray:none;stroke-opacity:1;paint-order:fill markers stroke"
       id="path825-5-15-04-48"
       cx="81.422134"
       cy="279.62854"
       r="1.1345128" />
    <circle
       style="opacity:1;fill:#4782a7;fill-opacity:1;fill-rule:nonzero;stroke:#447da0;stroke-width:0.39687499;stroke-miterlimit:4;stroke-dasharray:none;stroke-opacity:1;paint-order:fill markers stroke"
       id="path825-5-15-04-88"
       cx="68.700096"
       cy="281.12521"
       r="1.1345128" />
    <circle
       style="opacity:1;fill:#4782a7;fill-opacity:1;fill-rule:nonzero;stroke:#447da0;stroke-width:0.39687499;stroke-miterlimit:4;stroke-dasharray:none;stroke-opacity:1;paint-order:fill markers stroke"
       id="path825-5-15-04-9"
       cx="57.848953"
       cy="231.73381"
       r="1.1345128" />
    <circle
       style="opacity:1;fill:#4782a7;fill-opacity:1;fill-rule:nonzero;stroke:#447da0;stroke-width:0.39687499;stroke-miterlimit:4;stroke-dasharray:none;stroke-opacity:1;paint-order:fill markers stroke"
       id="path825-5-15-04-7"
       cx="117.71732"
       cy="294.22144"
       r="1.1345128" />
    <circle
       style="opacity:1;fill:#4782a7;fill-opacity:1;fill-rule:nonzero;stroke:#447da0;stroke-width:0.39687499;stroke-miterlimit:4;stroke-dasharray:none;stroke-opacity:1;paint-order:fill markers stroke"
       id="path825-5-15-04-76"
       cx="129.12973"
       cy="279.44144"
       r="1.1345128" />
    <circle
       style="opacity:1;fill:#4782a7;fill-opacity:1;fill-rule:nonzero;stroke:#447da0;stroke-width:0.39687499;stroke-miterlimit:4;stroke-dasharray:none;stroke-opacity:1;paint-order:fill markers stroke"
       id="path825-5-15-04-03"
       cx="132.68442"
       cy="267.28067"
       r="1.1345128" />
    <circle
       style="opacity:1;fill:#4782a7;fill-opacity:1;fill-rule:nonzero;stroke:#447da0;stroke-width:0.39687499;stroke-miterlimit:4;stroke-dasharray:none;stroke-opacity:1;paint-order:fill markers stroke"
       id="path825-5-15-04-09"
       cx="96.950485"
       cy="289.35715"
       r="1.1345128" />
    <circle
       style="opacity:1;fill:#4782a7;fill-opacity:1;fill-rule:nonzero;stroke:#447da0;stroke-width:0.39687499;stroke-miterlimit:4;stroke-dasharray:none;stroke-opacity:1;paint-order:fill markers stroke"
       id="path825-5-15-04-2"
       cx="88.531494"
       cy="281.49942"
       r="1.1345128" />
    <circle
       style="opacity:1;fill:#4782a7;fill-opacity:1;fill-rule:nonzero;stroke:#447da0;stroke-width:0.39687499;stroke-miterlimit:4;stroke-dasharray:none;stroke-opacity:1;paint-order:fill markers stroke"
       id="path825-5-15-04-5"
       cx="48.494522"
       cy="244.83002"
       r="1.1345128" />
    <circle
       style="opacity:1;fill:#4782a7;fill-opacity:1;fill-rule:nonzero;stroke:#447da0;stroke-width:0.39687499;stroke-miterlimit:4;stroke-dasharray:none;stroke-opacity:1;paint-order:fill markers stroke"
       id="path825-5-15-04-40"
       cx="73.5644"
       cy="243.5204"
       r="1.1345128" />
    <path
       style="fill:none;fill-rule:evenodd;stroke:#447da0;stroke-width:0.39687499;stroke-miterlimit:4;stroke-dasharray:none;stroke-opacity:1"
       d="m 46.250082,219.9201 31.04764,4.42138"
       id="path1240"
       inkscape:connector-type="polyline"
       inkscape:connector-curvature="0"
       inkscape:connection-start="#path825-5-15-04-8"
       inkscape:connection-end="#path825-7" />
    <path
       style="fill:none;fill-rule:evenodd;stroke:#447da0;stroke-width:0.39687499;stroke-miterlimit:4;stroke-dasharray:none;stroke-opacity:1"
       d="m 58.937898,231.41555 18.479533,-5.40104"
       id="path1242"
       inkscape:connector-type="polyline"
       inkscape:connector-curvature="0"
       inkscape:connection-start="#path825-5-15-04-9"
       inkscape:connection-end="#path825-7" />
    <path
       style="fill:none;fill-rule:evenodd;stroke:#447da0;stroke-width:0.39687499;stroke-miterlimit:4;stroke-dasharray:none;stroke-opacity:1"
       d="m 73.706843,244.64592 2.624183,20.73476"
       id="path1244"
       inkscape:connector-type="polyline"
       inkscape:connector-curvature="0"
       inkscape:connection-start="#path825-5-15-04-40"
       inkscape:connection-end="#path825-53" />
    <path
       style="fill:none;fill-rule:evenodd;stroke:#447da0;stroke-width:0.39687499;stroke-miterlimit:4;stroke-dasharray:none;stroke-opacity:1"
       d="M 49.463542,244.24004 77.836989,226.96509"
       id="path1246"
       inkscape:connector-type="polyline"
       inkscape:connector-curvature="0"
       inkscape:connection-start="#path825-5-15-04-5"
       inkscape:connection-end="#path825-7" />
    <path
       style="fill:none;fill-rule:evenodd;stroke:#447da0;stroke-width:0.39687499;stroke-miterlimit:4;stroke-dasharray:none;stroke-opacity:1"
       d="m 69.541252,208.33928 9.397573,13.31873"
       id="path1248"
       inkscape:connector-type="polyline"
       inkscape:connector-curvature="0"
       inkscape:connection-start="#path825-5-15-04-83"
       inkscape:connection-end="#path825-7" />
    <path
       style="fill:none;fill-rule:evenodd;stroke:#447da0;stroke-width:0.39687499;stroke-miterlimit:4;stroke-dasharray:none;stroke-opacity:1"
       d="m 83.775818,214.31501 -1.61968,6.72727"
       id="path1250"
       inkscape:connector-type="polyline"
       inkscape:connector-curvature="0"
       inkscape:connection-start="#path825-5-15-04-1"
       inkscape:connection-end="#path825-7" />
    <path
       style="fill:none;fill-rule:evenodd;stroke:#447da0;stroke-width:0.39687499;stroke-miterlimit:4;stroke-dasharray:none;stroke-opacity:1"
       d="m 102.74347,200.77543 -18.874616,21.1635"
       id="path1254"
       inkscape:connector-type="polyline"
       inkscape:connector-curvature="0"
       inkscape:connection-start="#path825-5-15-04-6"
       inkscape:connection-end="#path825-7" />
    <path
       style="fill:none;fill-rule:evenodd;stroke:#447da0;stroke-width:0.39687499;stroke-miterlimit:4;stroke-dasharray:none;stroke-opacity:1"
       d="m 93.855874,219.28564 -9.002091,4.0028"
       id="path1256"
       inkscape:connector-type="polyline"
       inkscape:connector-curvature="0"
       inkscape:connection-start="#path825-5-15-04-89"
       inkscape:connection-end="#path825-7" />
    <path
       style="fill:none;fill-rule:evenodd;stroke:#447da0;stroke-width:0.39687499;stroke-miterlimit:4;stroke-dasharray:none;stroke-opacity:1"
       d="M 97.145971,236.13121 84.470328,227.18903"
       id="path1258"
       inkscape:connector-type="polyline"
       inkscape:connector-curvature="0"
       inkscape:connection-start="#path825-5-15-04-33"
       inkscape:connection-end="#path825-7" />
    <path
       style="fill:none;fill-rule:evenodd;stroke:#447da0;stroke-width:0.39687499;stroke-miterlimit:4;stroke-dasharray:none;stroke-opacity:1"
       d="M 118.32405,237.17715 84.995199,226.14799"
       id="path1260"
       inkscape:connector-type="polyline"
       inkscape:connector-curvature="0"
       inkscape:connection-start="#path825-5-15-04-4"
       inkscape:connection-end="#path825-7" />
    <path
       style="fill:none;fill-rule:evenodd;stroke:#447da0;stroke-width:0.39687499;stroke-miterlimit:4;stroke-dasharray:none;stroke-opacity:1"
       d="M 92.732574,247.24719 79.149653,266.0981"
       id="path1262"
       inkscape:connector-type="polyline"
       inkscape:connector-curvature="0"
       inkscape:connection-start="#path825-5-15-04-3"
       inkscape:connection-end="#path825-53" />
    <path
       style="fill:none;fill-rule:evenodd;stroke:#447da0;stroke-width:0.39687499;stroke-miterlimit:4;stroke-dasharray:none;stroke-opacity:1"
       d="m 70.395843,279.43693 0.03238,-1.3e-4"
       id="path1264"
       inkscape:connector-type="polyline"
       inkscape:connector-curvature="0" />
    <path
       style="fill:none;fill-rule:evenodd;stroke:#447da0;stroke-width:0.39687499;stroke-miterlimit:4;stroke-dasharray:none;stroke-opacity:1"
       d="M 89.250904,280.62217 102.9157,263.95956"
       id="path1268"
       inkscape:connector-type="polyline"
       inkscape:connector-curvature="0"
       inkscape:connection-end="#path825-9"
       inkscape:connection-start="#path825-5-15-04-2" />
    <path
       style="fill:none;fill-rule:evenodd;stroke:#447da0;stroke-width:0.39687499;stroke-miterlimit:4;stroke-dasharray:none;stroke-opacity:1"
       d="m 108.84313,246.86783 -2.47257,10.16612"
       id="path1270"
       inkscape:connector-type="polyline"
       inkscape:connector-curvature="0"
       inkscape:connection-end="#path825-9"
       inkscape:connection-start="#path825-5-15-04-0" />
    <path
       style="fill:none;fill-rule:evenodd;stroke:#447da0;stroke-width:0.39687499;stroke-miterlimit:4;stroke-dasharray:none;stroke-opacity:1"
       d="m 127.8796,252.52277 -18.72797,6.98138"
       id="path1272"
       inkscape:connector-type="polyline"
       inkscape:connector-curvature="0"
       inkscape:connection-start="#path825-5-15-04-86"
       inkscape:connection-end="#path825-9" />
    <path
       style="fill:none;fill-rule:evenodd;stroke:#447da0;stroke-width:0.39687499;stroke-miterlimit:4;stroke-dasharray:none;stroke-opacity:1"
       d="m 109.29679,261.79664 22.28309,5.22504"
       id="path1274"
       inkscape:connector-type="polyline"
       inkscape:connector-curvature="0"
       inkscape:connection-start="#path825-9"
       inkscape:connection-end="#path825-5-15-04-03" />
    <path
       style="fill:none;fill-rule:evenodd;stroke:#447da0;stroke-width:0.39687499;stroke-miterlimit:4;stroke-dasharray:none;stroke-opacity:1"
       d="M 128.2364,278.7421 108.55788,263.33713"
       id="path1276"
       inkscape:connector-type="polyline"
       inkscape:connector-curvature="0"
       inkscape:connection-end="#path825-9"
       inkscape:connection-start="#path825-5-15-04-76" />
    <path
       style="fill:none;fill-rule:evenodd;stroke:#447da0;stroke-width:0.39687499;stroke-miterlimit:4;stroke-dasharray:none;stroke-opacity:1"
       d="m 117.32497,293.15694 -10.5198,-28.54227"
       id="path1278"
       inkscape:connector-type="polyline"
       inkscape:connector-curvature="0"
       inkscape:connection-start="#path825-5-15-04-7"
       inkscape:connection-end="#path825-9" />
    <path
       style="fill:none;fill-rule:evenodd;stroke:#447da0;stroke-width:0.39687499;stroke-miterlimit:4;stroke-dasharray:none;stroke-opacity:1"
       d="m 97.274446,288.26989 7.024734,-23.57561"
       id="path1282"
       inkscape:connector-type="polyline"
       inkscape:connector-curvature="0"
       inkscape:connection-start="#path825-5-15-04-09"
       inkscape:connection-end="#path825-9" />
    <path
       style="fill:none;fill-rule:evenodd;stroke:#447da0;stroke-width:0.39687499;stroke-miterlimit:4;stroke-dasharray:none;stroke-opacity:1"
       d="m 69.343472,280.19078 5.235054,-7.60338"
       id="path1288"
       inkscape:connector-type="polyline"
       inkscape:connector-curvature="0"
       inkscape:connection-end="#path825-53"
       inkscape:connection-start="#path825-5-15-04-88" />
    <circle
       style="opacity:1;fill:#4782a7;fill-opacity:1;fill-rule:nonzero;stroke:#447da0;stroke-width:0.39687499;stroke-miterlimit:4;stroke-dasharray:none;stroke-opacity:1;paint-order:fill markers stroke"
       id="path825-5-15-04-2-4"
       cx="75.061111"
       cy="288.6088"
       r="1.1345128" />
    <path
       style="fill:none;fill-rule:evenodd;stroke:#447da0;stroke-width:0.39687499;stroke-miterlimit:4;stroke-dasharray:none;stroke-opacity:1"
       d="m 75.164668,287.47904 1.3024,-14.2083"
       id="path1305"
       inkscape:connector-type="polyline"
       inkscape:connector-curvature="0"
       inkscape:connection-start="#path825-5-15-04-2-4"
       inkscape:connection-end="#path825-53" />
    <path
       style="fill:none;fill-rule:evenodd;stroke:#447da0;stroke-width:0.39687499;stroke-miterlimit:4;stroke-dasharray:none;stroke-opacity:1"
       d="m 80.960497,278.59221 -2.516079,-5.64832"
       id="path1307"
       inkscape:connector-type="polyline"
       inkscape:connector-curvature="0"
       inkscape:connection-start="#path825-5-15-04-48"
       inkscape:connection-end="#path825-53" />
  </g>
</svg>
